[
    {
        "used": false,
        "source": "api",
        "type": "cat",
        "deleted": false,
        "_id": "591f98803b90f7150a19c240",
        "__v": 0,
        "text": "A tortoiseshell is black with red or orange markings and a calico is white with patches of red, orange and black.",
        "updatedAt": "2020-01-02T02:02:48.616Z",
        "createdAt": "2018-01-04T01:10:54.673Z",
        "status": {
            "verified": true,
            "sentCount": 1
        },
        "user": "5a9ac18c7478810ea6c06381"
    },
    {
        "used": false,
        "source": "user",
        "type": "cat",
        "deleted": false,
        "_id": "5c471b30a99c3f00140fe4c5",
        "updatedAt": "2020-01-02T02:02:48.612Z",
        "createdAt": "2019-01-22T13:31:28.326Z",
        "user": "5c471b15a99c3f00140fe4c4",
        "text": "The collective noun for kittens is a \"kindle\".",
        "__v": 0,
        "status": {
            "verified": true,
            "sentCount": 1
        }
    },
    {
        "used": false,
        "source": "api",
        "type": "cat",
        "deleted": false,
        "_id": "591f98803b90f7150a19c206",
        "__v": 0,
        "text": "Cats can predict earthquakes. We humans are not 100% sure how they do it. There are several different theories.",
        "updatedAt": "2020-01-02T02:02:48.616Z",
        "createdAt": "2018-01-04T01:10:54.673Z",
        "status": {
            "verified": true,
            "sentCount": 1
        },
        "user": "5a9ac18c7478810ea6c06381"
    },
    {
        "used": false,
        "source": "api",
        "type": "cat",
        "deleted": false,
        "_id": "591f9890d369931519ce3568",
        "__v": 0,
        "text": "Cats have an average of 24 whiskers, arranged in four horizontal rows on each side.",
        "updatedAt": "2020-01-02T02:02:48.616Z",
        "createdAt": "2018-01-04T01:10:54.673Z",
        "status": {
            "verified": true,
            "sentCount": 1
        },
        "user": "5a9ac18c7478810ea6c06381"
    },
    {
        "used": false,
        "source": "api",
        "type": "cat",
        "deleted": false,
        "_id": "591f98703b90f7150a19c134",
        "__v": 0,
        "text": "Statistics indicate that animal lovers in recent years have shown a preference for cats over dogs!",
        "updatedAt": "2020-01-02T02:02:48.612Z",
        "createdAt": "2018-01-04T01:10:54.673Z",
        "status": {
            "verified": true,
            "sentCount": 1
        },
        "user": "5a9ac18c7478810ea6c06381"
    }
]